%!PS-Adobe-3.0 EPSF-3.0
%%Creator: cairo 1.16.0 (https://cairographics.org)
%%CreationDate: Tue Apr 11 06:45:55 2023
%%Pages: 1
%%DocumentData: Clean7Bit
%%LanguageLevel: 2
%%BoundingBox: 0 50 1000 1075
%%EndComments
%%BeginProlog
50 dict begin
/q { gsave } bind def
/Q { grestore } bind def
/cm { 6 array astore concat } bind def
/w { setlinewidth } bind def
/J { setlinecap } bind def
/j { setlinejoin } bind def
/M { setmiterlimit } bind def
/d { setdash } bind def
/m { moveto } bind def
/l { lineto } bind def
/c { curveto } bind def
/h { closepath } bind def
/re { exch dup neg 3 1 roll 5 3 roll moveto 0 rlineto
      0 exch rlineto 0 rlineto closepath } bind def
/S { stroke } bind def
/f { fill } bind def
/f* { eofill } bind def
/n { newpath } bind def
/W { clip } bind def
/W* { eoclip } bind def
/BT { } bind def
/ET { } bind def
/BDC { mark 3 1 roll /BDC pdfmark } bind def
/EMC { mark /EMC pdfmark } bind def
/cairo_store_point { /cairo_point_y exch def /cairo_point_x exch def } def
/Tj { show currentpoint cairo_store_point } bind def
/TJ {
  {
    dup
    type /stringtype eq
    { show } { -0.001 mul 0 cairo_font_matrix dtransform rmoveto } ifelse
  } forall
  currentpoint cairo_store_point
} bind def
/cairo_selectfont { cairo_font_matrix aload pop pop pop 0 0 6 array astore
    cairo_font exch selectfont cairo_point_x cairo_point_y moveto } bind def
/Tf { pop /cairo_font exch def /cairo_font_matrix where
      { pop cairo_selectfont } if } bind def
/Td { matrix translate cairo_font_matrix matrix concatmatrix dup
      /cairo_font_matrix exch def dup 4 get exch 5 get cairo_store_point
      /cairo_font where { pop cairo_selectfont } if } bind def
/Tm { 2 copy 8 2 roll 6 array astore /cairo_font_matrix exch def
      cairo_store_point /cairo_font where { pop cairo_selectfont } if } bind def
/g { setgray } bind def
/rg { setrgbcolor } bind def
/d1 { setcachedevice } bind def
/cairo_data_source {
  CairoDataIndex CairoData length lt
    { CairoData CairoDataIndex get /CairoDataIndex CairoDataIndex 1 add def }
    { () } ifelse
} def
/cairo_flush_ascii85_file { cairo_ascii85_file status { cairo_ascii85_file flushfile } if } def
/cairo_image { image cairo_flush_ascii85_file } def
/cairo_imagemask { imagemask cairo_flush_ascii85_file } def
%%EndProlog
%%BeginSetup
%%EndSetup
%%Page: 1 1
%%BeginPageSetup
%%PageBoundingBox: 0 50 1000 1075
%%EndPageSetup
q 0 50 1000 1025 rectclip
1 0 0 -1 0 1125 cm q
1 0.858824 0.6 rg
65.504 710.062 m 77.148 724.617 l 71.324 705.695 l 69.867 696.961 59.68
 707.148 65.504 710.062 c 78.602 701.328 m 82.969 708.605 87.336 715.883
 87.336 723.164 c 87.336 733.352 96.07 737.719 103.348 740.629 c 93.156 
728.984 87.336 696.961 78.602 701.328 c 637.555 84.152 m 662.297 84.152 
685.586 81.242 711.789 87.062 c 775.836 103.074 829.695 135.098 866.086 
180.223 c 967.977 343.25 l 972.344 384.008 981.078 429.133 979.621 478.621
 c 989.812 478.621 988.355 464.066 1000 461.152 c 988.355 490.266 982.531
 526.656 979.621 568.867 c 972.344 545.578 979.621 510.645 981.078 491.723
 c 970.887 507.734 965.066 496.086 965.066 488.809 c 966.523 477.164 960.699
 478.617 956.332 474.254 c 940.32 459.695 930.133 443.684 918.488 418.941
 c 925.766 400.02 927.223 372.363 903.93 357.805 c 896.652 353.441 887.918
 346.164 883.555 334.516 c 877.73 318.504 867.539 299.582 870.449 274.836
 c 871.906 267.559 848.617 290.852 835.516 280.66 c 778.746 241.359 721.977
 196.234 653.566 158.387 c 617.176 158.387 590.977 145.289 577.875 129.273
 c 566.23 114.719 574.961 95.797 592.43 94.34 c 602.621 94.34 614.266 91.43
 623 97.254 c 624.457 91.43 630.277 84.152 637.555 84.152 c 493.449 50.672
 m 496.363 52.129 l 510.918 55.039 518.195 75.418 534.207 68.141 c 534.207
 78.332 535.664 88.52 532.75 95.797 c 528.383 107.441 515.281 107.441 505.094
 107.441 c 407.57 101.617 350.801 142.375 291.121 177.309 c 275.109 187.5
 257.645 194.777 244.539 207.879 c 181.949 266.102 113.539 319.961 97.523
 427.676 c 84.426 547.035 l 82.969 560.133 68.414 573.234 71.324 589.246
 c 81.512 660.57 l 71.32 650.383 65.5 663.484 68.414 669.305 c 69.867 673.672
 75.691 688.227 84.426 675.129 c 96.07 696.961 107.715 739.176 123.727 758.098
 c 173.215 816.32 237.262 868.723 289.664 921.125 c 302.766 918.211 312.957
 918.211 315.867 909.477 c 320.23 918.211 311.5 926.945 304.223 928.402 
c 327.512 942.961 353.711 956.059 388.648 958.969 c 433.773 961.883 475.984
 969.16 515.285 979.352 c 535.664 973.527 556.039 970.617 577.875 969.16
 c 585.152 969.16 589.52 957.516 598.254 954.602 c 599.711 940.047 l 608.445
 953.148 606.988 935.68 601.164 926.945 c 611.355 935.68 614.266 942.961
 618.633 948.781 c 618.633 944.414 630.273 928.402 630.277 947.324 c 633.188
 928.402 l 637.555 925.492 639.008 944.414 643.379 931.312 c 647.742 918.211
 656.477 928.398 665.211 924.035 c 662.301 929.855 663.758 941.504 673.945
 934.227 c 685.59 924.035 l 692.867 941.504 704.512 934.227 710.336 931.312
 c 774.383 890.555 838.43 842.523 899.562 794.488 c 898.105 813.41 l 905.383
 790.117 l 912.664 797.398 918.484 791.574 921.398 787.211 c 930.133 772.652
 941.773 758.098 960.699 744.996 c 937.41 807.586 909.754 857.078 874.82
 897.836 c 860.262 915.305 l 860.262 925.492 857.352 938.594 845.707 940.047
 c 839.883 941.504 828.238 937.133 819.508 945.867 c 815.141 951.691 829.695
 963.336 818.051 954.602 c 807.859 947.324 797.672 954.602 786.023 957.516
 c 777.289 960.43 791.848 969.16 794.758 974.98 c 797.672 980.805 800.582
 986.625 799.129 993.906 c 783.117 976.438 l 764.195 986.629 752.547 1005.551
 736.535 1020.105 c 729.258 1025.93 732.168 1036.117 732.168 1044.852 c 
721.977 1044.852 710.336 1041.938 704.512 1047.762 c 700.148 1053.586 701.602
 1062.32 701.602 1071.055 c 687.043 1069.598 685.586 1047.762 672.492 1052.129
 c 659.391 1055.039 644.836 1056.492 633.188 1063.773 c 641.922 1081.242
 618.633 1071.055 621.543 1073.961 c 599.711 1060.863 580.789 1050.672 557.496
 1059.406 c 508.008 1043.395 446.871 1050.672 401.746 1056.496 c 401.746
 1049.219 403.203 1041.941 400.289 1040.484 c 397.379 1047.762 388.648 1044.852
 390.102 1044.852 c 362.445 1025.93 334.789 1014.281 305.68 998.273 c 279.477
 1001.184 254.73 988.082 247.453 980.805 c 227.074 961.883 203.785 972.07
 184.863 967.703 c 144.105 957.512 129.551 915.301 125.18 886.191 c 122.27
 871.633 110.625 865.812 106.258 867.266 c 87.336 806.133 58.227 750.82 
34.934 694.051 c 29.113 679.492 30.57 664.938 30.57 648.926 c 37.848 651.836
 45.125 650.383 43.668 640.195 c 36.391 592.16 18.926 555.77 0 520.836 c
 10.191 471.344 11.645 413.117 34.934 369.449 c 55.312 330.148 93.16 309.77
 119.359 276.289 c 128.094 264.648 128.094 248.633 136.828 238.445 c 165.941
 209.336 195.055 178.766 227.074 152.566 c 241.633 140.922 259.098 152.566
 280.93 148.199 c 288.211 122 317.32 98.711 344.977 105.988 c 356.621 108.898
 379.914 78.332 387.191 75.418 c 398.836 71.055 393.012 87.062 393.012 97.254
 c 420.668 75.418 458.516 63.773 493.449 50.672 c f
Q q
200 602.172 600 65.094 re W n
1 0.858824 0.6 rg
200.023 664.812 m 200.023 604.625 l 237.641 604.625 l 237.641 616.074 l
 211.883 616.074 l 211.883 629.73 l 234.207 629.73 l 234.207 641.18 l 211.883
 641.18 l 211.883 664.812 l h
249.09 664.812 m 249.09 604.625 l 260.949 604.625 l 260.949 664.812 l h
272.398 616.074 m 272.398 604.625 l 312.957 604.625 l 312.957 616.074 l
 298.305 616.074 l 298.305 664.812 l 286.465 664.812 l 286.465 616.074 l
 h
350.969 604.625 m 369.207 604.625 l 372.969 604.625 376.32 605.102 379.266
 606.051 c 382.207 607.008 384.676 608.371 386.672 610.137 c 388.656 611.914
 390.168 614.043 391.203 616.516 c 392.238 619.004 392.758 621.801 392.758
 624.906 c 392.758 627.359 392.391 629.812 391.66 632.266 c 390.922 634.719
 389.719 636.957 388.062 638.973 c 386.395 640.988 384.199 642.609 381.473
 643.832 c 378.746 645.062 375.367 645.68 371.332 645.68 c 362.828 645.68
 l 362.828 664.812 l 350.969 664.812 l h
362.828 634.23 m 371.25 634.23 l 373.051 634.23 374.547 633.93 375.746 
633.328 c 376.945 632.73 377.891 631.969 378.578 631.039 c 379.254 630.113
 379.742 629.145 380.051 628.129 c 380.344 627.125 380.492 626.188 380.492
 625.316 c 380.492 624.66 380.398 623.828 380.211 622.812 c 380.016 621.809
 379.617 620.789 379.02 619.754 c 378.418 618.719 377.508 617.848 376.289
 617.137 c 375.055 616.43 373.402 616.074 371.332 616.074 c 362.828 616.074
 l h
368.223 641.918 m 382.371 641.59 l 397.254 664.812 l 383.434 664.812 l 
h
407.066 664.812 m 407.066 604.625 l 448.121 604.625 l 448.121 616.074 l
 418.926 616.074 l 418.926 628.914 l 444.77 628.914 l 444.77 640.363 l 418.926
 640.363 l 418.926 653.367 l 449.266 653.367 l 449.266 664.812 l h
472.98 664.812 m 461.531 664.812 l 461.531 602.172 l 461.613 602.172 l 
495.062 649.605 l 489.992 648.457 l 523.355 602.172 l 523.52 602.172 l 523.52
 664.812 l 511.66 664.812 l 511.66 628.914 l 512.398 635.047 l 492.035 663.996
 l 491.871 663.996 l 470.938 635.047 l 472.98 629.406 l h
539.039 664.812 m 539.039 604.625 l 550.898 604.625 l 550.898 664.812 l
 h
620.652 667.266 m 620.328 667.266 l 574.695 626.051 l 578.211 628.016 l
 578.457 664.812 l 566.438 664.812 l 566.438 602.254 l 566.926 602.254 l
 611.578 643.309 l 608.961 642.16 l 608.715 604.625 l 620.652 604.625 l 
h
657.125 664.812 m 636.191 664.812 l 636.191 604.625 l 654.184 604.625 l
 660.234 604.625 665.387 605.527 669.641 607.324 c 673.891 609.125 677.309
 611.523 679.895 614.52 c 682.488 617.52 684.387 620.871 685.586 624.578
 c 686.785 628.285 687.383 632.023 687.383 635.785 c 687.383 640.254 686.578
 644.273 684.965 647.836 c 683.359 651.414 681.168 654.465 678.391 656.996
 c 675.609 659.535 672.391 661.473 668.738 662.801 c 665.086 664.145 661.215
 664.812 657.125 664.812 c h
648.051 615.992 m 648.051 653.367 l 655.082 653.367 l 658.082 653.367 660.809
 652.969 663.262 652.172 c 665.715 651.387 667.824 650.23 669.59 648.703
 c 671.367 647.176 672.73 645.254 673.68 642.93 c 674.637 640.617 675.117
 637.965 675.117 634.965 c 675.117 631.039 674.473 627.836 673.188 625.348
 c 671.914 622.875 670.332 620.953 668.445 619.59 c 666.57 618.227 664.652
 617.285 662.688 616.762 c 660.727 616.25 659.062 615.992 657.699 615.992
 c h
699.242 664.812 m 699.242 604.625 l 740.293 604.625 l 740.293 616.074 l
 711.102 616.074 l 711.102 628.914 l 736.941 628.914 l 736.941 640.363 l
 711.102 640.363 l 711.102 653.367 l 741.438 653.367 l 741.438 664.812 l
 h
753.691 604.625 m 771.926 604.625 l 775.688 604.625 779.039 605.102 781.984
 606.051 c 784.93 607.008 787.398 608.371 789.395 610.137 c 791.379 611.914
 792.887 614.043 793.926 616.516 c 794.961 619.004 795.477 621.801 795.477
 624.906 c 795.477 627.359 795.113 629.812 794.383 632.266 c 793.641 634.719
 792.441 636.957 790.785 638.973 c 789.117 640.988 786.918 642.609 784.191
 643.832 c 781.465 645.062 778.086 645.68 774.051 645.68 c 765.547 645.68
 l 765.547 664.812 l 753.691 664.812 l h
765.547 634.23 m 773.969 634.23 l 775.77 634.23 777.27 633.93 778.469 633.328
 c 779.668 632.73 780.609 631.969 781.297 631.039 c 781.973 630.113 782.465
 629.145 782.77 628.129 c 783.062 627.125 783.211 626.188 783.211 625.316
 c 783.211 624.66 783.117 623.828 782.934 622.812 c 782.738 621.809 782.34
 620.789 781.738 619.754 c 781.141 618.719 780.23 617.848 779.008 617.137
 c 777.777 616.43 776.125 616.074 774.051 616.074 c 765.547 616.074 l h
770.945 641.918 m 785.094 641.59 l 799.977 664.812 l 786.156 664.812 l 
h
770.945 641.918 m f
Q q
412.957 457.734 174.09 134.941 re W n
0.913725 0.337255 0.337255 rg
541.637 457.734 m 522.988 457.734 506.984 468.988 499.992 485.062 c 493.004
 468.988 477.023 457.734 458.375 457.734 c 433.281 457.734 412.957 478.066
 412.957 503.145 c 412.957 518.086 420.289 531.238 431.414 539.516 c 499.992
 592.676 l 568.586 539.516 l 579.723 531.238 587.043 518.086 587.043 503.145
 c 587.043 478.066 566.703 457.734 541.637 457.734 c h
543.02 531.156 m 519.035 531.156 l 512.379 513.156 l 497.766 558.152 l 
483.078 525.254 l 481.609 529.445 l 456.98 529.445 l 456.98 522.59 l 476.746
 522.59 l 482.305 506.711 l 496.754 539.07 l 511.961 492.258 l 523.812 524.301
 l 543.023 524.301 l 543.023 531.156 l h
543.02 531.156 m f
Q Q
showpage
%%Trailer
end
%%EOF
