%!PS-Adobe-3.0 EPSF-3.0
%%Creator: cairo 1.16.0 (https://cairographics.org)
%%CreationDate: Tue Apr 11 06:45:55 2023
%%Pages: 1
%%DocumentData: Clean7Bit
%%LanguageLevel: 2
%%BoundingBox: 0 0 1000 1000
%%EndComments
%%BeginProlog
50 dict begin
/q { gsave } bind def
/Q { grestore } bind def
/cm { 6 array astore concat } bind def
/w { setlinewidth } bind def
/J { setlinecap } bind def
/j { setlinejoin } bind def
/M { setmiterlimit } bind def
/d { setdash } bind def
/m { moveto } bind def
/l { lineto } bind def
/c { curveto } bind def
/h { closepath } bind def
/re { exch dup neg 3 1 roll 5 3 roll moveto 0 rlineto
      0 exch rlineto 0 rlineto closepath } bind def
/S { stroke } bind def
/f { fill } bind def
/f* { eofill } bind def
/n { newpath } bind def
/W { clip } bind def
/W* { eoclip } bind def
/BT { } bind def
/ET { } bind def
/BDC { mark 3 1 roll /BDC pdfmark } bind def
/EMC { mark /EMC pdfmark } bind def
/cairo_store_point { /cairo_point_y exch def /cairo_point_x exch def } def
/Tj { show currentpoint cairo_store_point } bind def
/TJ {
  {
    dup
    type /stringtype eq
    { show } { -0.001 mul 0 cairo_font_matrix dtransform rmoveto } ifelse
  } forall
  currentpoint cairo_store_point
} bind def
/cairo_selectfont { cairo_font_matrix aload pop pop pop 0 0 6 array astore
    cairo_font exch selectfont cairo_point_x cairo_point_y moveto } bind def
/Tf { pop /cairo_font exch def /cairo_font_matrix where
      { pop cairo_selectfont } if } bind def
/Td { matrix translate cairo_font_matrix matrix concatmatrix dup
      /cairo_font_matrix exch def dup 4 get exch 5 get cairo_store_point
      /cairo_font where { pop cairo_selectfont } if } bind def
/Tm { 2 copy 8 2 roll 6 array astore /cairo_font_matrix exch def
      cairo_store_point /cairo_font where { pop cairo_selectfont } if } bind def
/g { setgray } bind def
/rg { setrgbcolor } bind def
/d1 { setcachedevice } bind def
/cairo_data_source {
  CairoDataIndex CairoData length lt
    { CairoData CairoDataIndex get /CairoDataIndex CairoDataIndex 1 add def }
    { () } ifelse
} def
/cairo_flush_ascii85_file { cairo_ascii85_file status { cairo_ascii85_file flushfile } if } def
/cairo_image { image cairo_flush_ascii85_file } def
/cairo_imagemask { imagemask cairo_flush_ascii85_file } def
%%EndProlog
%%BeginSetup
%%EndSetup
%%Page: 1 1
%%BeginPageSetup
%%PageBoundingBox: 0 0 1000 1000
%%EndPageSetup
q 0 0 1000 1000 rectclip
1 0 0 -1 0 1000 cm q
0.301961 0.207843 0.772549 rg
0 0 1000 1000 rectfill
1 0.858824 0.6 rg
195.852 603.293 m 204.004 613.484 l 199.926 600.234 l 198.906 594.121 191.777
 601.254 195.852 603.293 c 205.023 597.18 m 208.078 602.273 211.137 607.367
 211.137 612.465 c 211.137 619.598 217.25 622.652 222.344 624.691 c 215.211
 616.539 211.133 594.121 205.023 597.18 c 596.289 165.156 m 613.609 165.156
 629.91 163.117 648.254 167.195 c 693.086 178.402 730.785 200.816 756.258
 232.406 c 827.586 346.523 l 830.641 375.055 836.754 406.641 835.734 441.285
 c 842.867 441.285 841.848 431.098 850 429.059 c 841.848 449.438 837.773
 474.91 835.734 504.457 c 830.641 488.156 835.734 463.699 836.754 450.457
 c 829.621 461.664 825.547 453.512 825.547 448.418 c 826.566 440.266 822.488
 441.281 819.434 438.227 c 808.223 428.039 801.094 416.828 792.941 399.508
 c 798.035 386.262 799.055 366.902 782.75 356.715 c 777.656 353.66 771.543
 348.562 768.488 340.41 c 764.41 329.203 757.277 315.957 759.316 298.637
 c 760.336 293.543 744.031 309.844 734.859 302.711 c 695.121 275.203 655.383
 243.613 607.496 217.121 c 582.023 217.121 563.684 207.953 554.512 196.742
 c 546.363 186.555 552.473 173.309 564.703 172.289 c 571.836 172.289 579.984
 170.25 586.102 174.328 c 587.121 170.25 591.195 165.156 596.289 165.156
 c 495.414 141.719 m 497.453 142.738 l 507.645 144.777 512.738 159.043 523.945
 153.949 c 523.945 161.082 524.965 168.215 522.926 173.309 c 519.867 181.457
 510.695 181.457 503.566 181.457 c 435.297 177.383 395.559 205.914 353.785
 230.367 c 342.578 237.5 330.352 242.594 321.18 251.766 c 277.363 292.523
 229.477 330.223 218.266 405.621 c 209.098 489.176 l 208.078 498.344 197.891
 507.516 199.926 518.723 c 207.059 568.648 l 199.926 561.516 195.852 570.688
 197.891 574.766 c 198.906 577.82 202.984 588.008 209.098 578.84 c 217.25
 594.125 225.402 623.672 236.609 636.918 c 271.25 677.676 316.082 714.355
 352.766 751.039 c 361.938 749 369.07 749 371.105 742.883 c 374.16 749 368.051
 755.113 362.957 756.133 c 379.258 766.32 397.598 775.492 422.055 777.527
 c 453.641 779.566 483.188 784.66 510.699 791.797 c 524.965 787.719 539.227
 785.68 554.512 784.66 c 559.605 784.66 562.664 776.512 568.777 774.473 
c 569.797 764.281 l 575.91 773.453 574.891 761.227 570.816 755.113 c 577.949
 761.227 579.984 766.32 583.043 770.398 c 583.043 767.34 591.191 756.133
 591.195 769.379 c 593.23 756.133 l 596.289 754.094 597.305 767.34 600.363
 758.168 c 603.422 749 609.535 756.129 615.648 753.074 c 613.609 757.148
 614.629 765.301 621.762 760.207 c 629.914 753.074 l 635.008 765.301 643.16
 760.207 647.234 758.168 c 692.066 729.641 736.898 696.016 779.695 662.391
 c 778.676 675.637 l 783.77 659.332 l 788.863 664.43 792.938 660.352 794.977
 657.297 c 801.094 647.105 809.242 636.918 822.488 627.746 c 806.188 671.562
 786.828 706.203 762.375 734.734 c 752.184 746.961 l 752.184 754.094 750.145
 763.266 741.996 764.281 c 737.918 765.301 729.766 762.242 723.656 768.359
 c 720.598 772.434 730.789 780.586 722.637 774.473 c 715.5 769.379 708.371
 774.473 700.219 776.512 c 694.102 778.551 704.293 784.66 706.332 788.738
 c 708.371 792.812 710.406 796.887 709.391 801.984 c 698.18 789.758 l 684.938
 796.891 676.781 810.137 665.574 820.324 c 660.48 824.398 662.52 831.531
 662.52 837.645 c 655.383 837.645 647.234 835.605 643.16 839.684 c 640.102
 843.758 641.121 849.875 641.121 855.988 c 630.93 854.969 629.91 839.684
 620.742 842.738 c 611.574 844.777 601.383 845.797 593.23 850.891 c 599.344
 863.121 583.043 855.988 585.082 858.023 c 569.797 848.855 556.551 841.719
 540.246 847.836 c 505.605 836.625 462.809 841.719 431.223 845.797 c 431.223
 840.703 432.242 835.609 430.203 834.59 c 428.164 839.684 422.055 837.645
 423.07 837.645 c 403.711 824.398 384.352 816.246 363.977 805.039 c 345.633
 807.078 328.312 797.906 323.219 792.812 c 308.953 779.566 292.648 786.699
 279.402 783.641 c 250.875 776.508 240.684 746.961 237.625 726.582 c 235.59
 716.395 227.438 712.32 224.383 713.336 c 211.137 670.543 190.758 631.824
 174.453 592.086 c 170.379 581.895 171.398 571.707 171.398 560.496 c 176.492
 562.535 181.586 561.516 180.566 554.387 c 175.473 520.762 163.246 495.289
 150 470.836 c 157.133 436.191 158.152 395.434 174.453 364.863 c 188.719
 337.355 215.211 323.09 233.551 299.652 c 239.664 291.504 239.664 280.293
 245.781 273.164 c 266.16 252.785 286.539 231.387 308.953 213.047 c 319.141
 204.895 331.367 213.047 346.652 209.988 c 351.746 191.648 372.125 175.348
 391.484 180.441 c 399.637 182.48 415.938 161.082 421.035 159.043 c 429.184
 155.988 425.109 167.195 425.109 174.328 c 444.469 159.043 470.961 150.891
 495.414 141.719 c f
Q q
290 527.77 420 45.566 re W n
1 0.858824 0.6 rg
290.016 571.621 m 290.016 529.488 l 316.348 529.488 l 316.348 537.504 l
 298.316 537.504 l 298.316 547.062 l 313.945 547.062 l 313.945 555.078 l
 298.316 555.078 l 298.316 571.621 l h
324.363 571.621 m 324.363 529.488 l 332.664 529.488 l 332.664 571.621 l
 h
340.68 537.504 m 340.68 529.488 l 369.07 529.488 l 369.07 537.504 l 358.812
 537.504 l 358.812 571.621 l 350.523 571.621 l 350.523 537.504 l h
395.68 529.488 m 408.445 529.488 l 411.078 529.488 413.426 529.82 415.484
 530.484 c 417.547 531.156 419.273 532.109 420.672 533.348 c 422.059 534.59
 423.117 536.078 423.844 537.812 c 424.566 539.551 424.93 541.508 424.93
 543.684 c 424.93 545.402 424.676 547.121 424.164 548.836 c 423.645 550.555
 422.805 552.117 421.645 553.531 c 420.477 554.941 418.938 556.078 417.031
 556.93 c 415.121 557.793 412.758 558.227 409.934 558.227 c 403.98 558.227
 l 403.98 571.621 l 395.68 571.621 l h
403.98 550.211 m 409.875 550.211 l 411.133 550.211 412.184 550 413.023 
549.582 c 413.863 549.16 414.523 548.625 415.004 547.977 c 415.477 547.328
 415.82 546.648 416.035 545.941 c 416.242 545.238 416.344 544.582 416.344
 543.973 c 416.344 543.512 416.277 542.93 416.148 542.219 c 416.012 541.516
 415.734 540.805 415.312 540.078 c 414.895 539.352 414.258 538.742 413.402
 538.246 c 412.539 537.75 411.383 537.504 409.934 537.504 c 403.98 537.504
 l h
407.758 555.59 m 417.66 555.363 l 428.078 571.621 l 418.402 571.621 l h
434.949 571.621 m 434.949 529.488 l 463.684 529.488 l 463.684 537.504 l
 443.25 537.504 l 443.25 546.488 l 461.336 546.488 l 461.336 554.504 l 443.25
 554.504 l 443.25 563.605 l 464.484 563.605 l 464.484 571.621 l h
481.086 571.621 m 473.074 571.621 l 473.074 527.77 l 473.129 527.77 l 496.543
 560.973 l 492.992 560.172 l 516.348 527.77 l 516.465 527.77 l 516.465 571.621
 l 508.164 571.621 l 508.164 546.488 l 508.68 550.781 l 494.426 571.047 
l 494.309 571.047 l 479.656 550.781 l 481.086 546.832 l h
527.328 571.621 m 527.328 529.488 l 535.629 529.488 l 535.629 571.621 l
 h
584.457 573.336 m 584.23 573.336 l 552.285 544.484 l 554.75 545.859 l 554.922
 571.621 l 546.504 571.621 l 546.504 527.828 l 546.848 527.828 l 578.105
 556.566 l 576.273 555.762 l 576.102 529.488 l 584.457 529.488 l h
609.988 571.621 m 595.336 571.621 l 595.336 529.488 l 607.93 529.488 l 
612.164 529.488 615.77 530.117 618.746 531.379 c 621.723 532.637 624.117
 534.316 625.926 536.414 c 627.742 538.516 629.07 540.859 629.91 543.457
 c 630.75 546.051 631.168 548.664 631.168 551.297 c 631.168 554.426 630.605
 557.238 629.477 559.734 c 628.352 562.238 626.82 564.375 624.871 566.148
 c 622.926 567.926 620.676 569.281 618.117 570.211 c 615.562 571.152 612.852
 571.621 609.988 571.621 c h
603.633 537.445 m 603.633 563.605 l 608.559 563.605 l 610.656 563.605 612.566
 563.328 614.281 562.77 c 616 562.219 617.477 561.41 618.711 560.344 c 619.957
 559.273 620.91 557.926 621.574 556.301 c 622.246 554.684 622.582 552.824
 622.582 550.727 c 622.582 547.977 622.133 545.734 621.23 543.992 c 620.34
 542.262 619.23 540.918 617.91 539.965 c 616.598 539.012 615.254 538.352
 613.883 537.984 c 612.508 537.625 611.344 537.445 610.391 537.445 c h
639.469 571.621 m 639.469 529.488 l 668.207 529.488 l 668.207 537.504 l
 647.77 537.504 l 647.77 546.488 l 665.859 546.488 l 665.859 554.504 l 647.77
 554.504 l 647.77 563.605 l 669.008 563.605 l 669.008 571.621 l h
677.582 529.488 m 690.348 529.488 l 692.98 529.488 695.328 529.82 697.391
 530.484 c 699.449 531.156 701.18 532.109 702.574 533.348 c 703.965 534.59
 705.023 536.078 705.746 537.812 c 706.473 539.551 706.836 541.508 706.836
 543.684 c 706.836 545.402 706.578 547.121 706.066 548.836 c 705.547 550.555
 704.707 552.117 703.547 553.531 c 702.379 554.941 700.844 556.078 698.934
 556.93 c 697.027 557.793 694.66 558.227 691.836 558.227 c 685.883 558.227
 l 685.883 571.621 l 677.582 571.621 l h
685.883 550.211 m 691.777 550.211 l 693.039 550.211 694.09 550 694.926 
549.582 c 695.766 549.16 696.426 548.625 696.91 547.977 c 697.383 547.328
 697.727 546.648 697.938 545.941 c 698.145 545.238 698.246 544.582 698.246
 543.973 c 698.246 543.512 698.184 542.93 698.055 542.219 c 697.914 541.516
 697.637 540.805 697.219 540.078 c 696.797 539.352 696.16 538.742 695.305
 538.246 c 694.441 537.75 693.285 537.504 691.836 537.504 c 685.883 537.504
 l h
689.66 555.59 m 699.562 555.363 l 709.984 571.621 l 700.309 571.621 l h
689.66 555.59 m f
Q q
439.07 426.664 121.863 94.457 re W n
0.913725 0.337255 0.337255 rg
529.145 426.664 m 516.094 426.664 504.891 434.543 499.996 445.793 c 495.102
 434.543 483.918 426.664 470.863 426.664 c 453.297 426.664 439.07 440.895
 439.07 458.453 c 439.07 468.91 444.203 478.117 451.988 483.91 c 499.996
 521.121 l 548.012 483.91 l 555.805 478.117 560.93 468.91 560.93 458.453
 c 560.93 440.898 546.691 426.664 529.145 426.664 c h
530.113 478.059 m 513.324 478.059 l 508.668 465.461 l 498.434 496.957 l
 488.152 473.93 l 487.125 476.863 l 469.887 476.863 l 469.887 472.062 l 
483.723 472.062 l 487.613 460.949 l 497.727 483.598 l 508.371 450.832 l 
516.668 473.262 l 530.117 473.262 l 530.117 478.059 l h
530.113 478.059 m f
Q Q
showpage
%%Trailer
end
%%EOF
